# WaveFront *.mtl file (generated by Autodesk ATF)

newmtl 225,225,225
Ka 0.882353 0.882353 0.882353
Kd 0.882353 0.882353 0.882353
Ks 1.000000 1.000000 1.000000
Ns 200.000000
d 1.000000

newmtl 191,210,230
Ka 0.749020 0.823529 0.901961
Kd 0.749020 0.823529 0.901961
Ks 1.000000 1.000000 1.000000
Ns 200.000000
d 1.000000

newmtl 202,209,238
Ka 0.792157 0.819608 0.933333
Kd 0.792157 0.819608 0.933333
Ks 1.000000 1.000000 1.000000
Ns 200.000000
d 1.000000

newmtl 100,100,100
Ka 0.392157 0.392157 0.392157
Kd 0.392157 0.392157 0.392157
Ks 1.000000 1.000000 1.000000
Ns 200.000000
d 1.000000

newmtl 180,180,180
Ka 0.705882 0.705882 0.705882
Kd 0.705882 0.705882 0.705882
Ks 1.000000 1.000000 1.000000
Ns 200.000000
d 1.000000

newmtl 50,50,50
Ka 0.196078 0.196078 0.196078
Kd 0.196078 0.196078 0.196078
Ks 1.000000 1.000000 1.000000
Ns 200.000000
d 1.000000
