#
# Material file
# Created by SpaceClaim
#

newmtl mtl_0
Kd 0.6980392 0.6980392 0.6980392
Ks 0.8 0.8 0.8
Ka 0.2 0.2 0.2

newmtl mtl_1
Kd 0.8823529 0.8823529 0.8823529
Ks 0.8 0.8 0.8
Ka 0.2 0.2 0.2

newmtl mtl_2
Kd 0.6 0.6862745 0.5607843
Ks 0.8 0.8 0.8
Ka 0.2 0.2 0.2
