# WaveFront *.mtl file (generated by Autodesk ATF)

newmtl 0,0,0
Ka 0.000000 0.000000 0.000000
Kd 0.000000 0.000000 0.000000
Ks 1.000000 1.000000 1.000000
Ns 200.000000
d 1.000000

newmtl 51,51,51
Ka 0.200000 0.200000 0.200000
Kd 0.200000 0.200000 0.200000
Ks 1.000000 1.000000 1.000000
Ns 200.000000
d 1.000000

newmtl 153,153,153
Ka 0.600000 0.600000 0.600000
Kd 0.600000 0.600000 0.600000
Ks 1.000000 1.000000 1.000000
Ns 200.000000
d 1.000000

newmtl 242,242,242
Ka 0.949020 0.949020 0.949020
Kd 0.949020 0.949020 0.949020
Ks 1.000000 1.000000 1.000000
Ns 200.000000
d 1.000000

newmtl 204,255,51
Ka 0.800000 1.000000 0.200000
Kd 0.800000 1.000000 0.200000
Ks 1.000000 1.000000 1.000000
Ns 200.000000
d 1.000000

newmtl 215,255,199
Ka 0.843137 1.000000 0.780392
Kd 0.843137 1.000000 0.780392
Ks 1.000000 1.000000 1.000000
Ns 200.000000
d 1.000000

newmtl 225,245,255
Ka 0.882353 0.960784 1.000000
Kd 0.882353 0.960784 1.000000
Ks 1.000000 1.000000 1.000000
Ns 200.000000
d 1.000000

newmtl 255,102,0
Ka 1.000000 0.400000 0.000000
Kd 1.000000 0.400000 0.000000
Ks 1.000000 1.000000 1.000000
Ns 200.000000
d 1.000000

newmtl 255,153,0
Ka 1.000000 0.600000 0.000000
Kd 1.000000 0.600000 0.000000
Ks 1.000000 1.000000 1.000000
Ns 200.000000
d 1.000000

newmtl 255,250,191
Ka 1.000000 0.980392 0.749020
Kd 1.000000 0.980392 0.749020
Ks 1.000000 1.000000 1.000000
Ns 200.000000
d 1.000000

newmtl 225,245,255
Ka 0.882353 0.960784 1.000000
Kd 0.882353 0.960784 1.000000
Ks 1.000000 1.000000 1.000000
Ns 200.000000
d 1.000000

newmtl 255,255,0
Ka 1.000000 1.000000 0.000000
Kd 1.000000 1.000000 0.000000
Ks 1.000000 1.000000 1.000000
Ns 200.000000
d 1.000000

